{
  "openapi": "3.0.1",
  "info": {
    "title": "OpenAPI definition",
    "version": "v0"
  },
  "servers": [
    {
      "url": "http://localhost:8080",
      "description": "Generated server url"
    }
  ],
  "paths": {
    "/calculate": {
      "post": {
        "tags": [
          "calculator-controller"
        ],
        "operationId": "calculateExpression",
        "requestBody": {
          "content": {
            "application/json": {
              "schema": {
                "$ref": "#/components/schemas/CalculateRequest"
              }
            }
          },
          "required": true
        },
        "responses": {
          "200": {
            "description": "Success",
            "content": {
              "application/json": {
                "schema": {
                  "$ref": "#/components/schemas/CalculateResponse"
                }
              }
            }
          },
          "400": {
            "description": "Invalid request"
          },
          "502": {
            "description": "Db error"
          }
        }
      }
    },
    "/get-list": {
      "get": {
        "tags": [
          "calculator-controller"
        ],
        "operationId": "getCalculationsList",
        "responses": {
          "200": {
            "description": "Success",
            "content": {
              "application/json": {
                "schema": {
                  "type": "array",
                  "items": {
                    "$ref": "#/components/schemas/Calculation"
                  }
                }
              }
            }
          },
          "502": {
            "description": "Db error"
          }
        }
      }
    }
  },
  "components": {
    "schemas": {
      "CalculateRequest": {
        "type": "object",
        "properties": {
          "expression": {
            "type": "string"
          }
        }
      },
      "CalculateResponse": {
        "required": [
          "result"
        ],
        "type": "object",
        "properties": {
          "result": {
            "type": "string"
          }
        }
      },
      "Calculation": {
        "required": [
          "code",
          "id"
        ],
        "type": "object",
        "properties": {
          "expression": {
            "type": "string"
          },
          "result": {
            "type": "string"
          },
          "error": {
            "type": "string"
          },
          "code": {
            "type": "integer",
            "format": "int32"
          },
          "id": {
            "type": "integer",
            "format": "int64"
          }
        }
      }
    }
  }
}